<svg width="9" height="11" viewBox="0 0 9 11" fill="none" xmlns="http://www.w3.org/2000/svg">
<path d="M4.27778 0C3.1437 0.00145519 2.05651 0.436519 1.2546 1.20979C0.452687 1.98306 0.00150908 3.03143 0 4.125C0 7.0864 3.98546 10.7955 4.15479 10.9519C4.18773 10.9827 4.23185 11 4.27778 11C4.32371 11 4.36783 10.9827 4.40076 10.9519C4.57009 10.7955 8.55556 7.0864 8.55556 4.125C8.55405 3.03143 8.10287 1.98306 7.30096 1.20979C6.49904 0.436519 5.41185 0.00145519 4.27778 0ZM4.27778 6.01562C3.89 6.01562 3.51093 5.90474 3.1885 5.69699C2.86607 5.48925 2.61477 5.19397 2.46638 4.84851C2.31798 4.50304 2.27915 4.1229 2.3548 3.75615C2.43045 3.38941 2.61719 3.05253 2.89139 2.78812C3.16559 2.52371 3.51495 2.34365 3.89527 2.2707C4.2756 2.19775 4.66982 2.23519 5.02809 2.37829C5.38635 2.52138 5.69256 2.76371 5.908 3.07462C6.12344 3.38553 6.23843 3.75107 6.23843 4.125C6.2381 4.62632 6.03142 5.10702 5.6638 5.46152C5.29618 5.81601 4.79767 6.0153 4.27778 6.01562Z" fill="#E10000"/>
</svg>
