<svg width="41" height="40" viewBox="0 0 41 40" fill="none" xmlns="http://www.w3.org/2000/svg">
<path d="M3.79319 19.2919L12.0733 22.0037L31.7333 10.4127C32.0187 10.2453 32.3106 10.6185 32.065 10.8368L17.1814 24.0483L16.6286 31.4446C16.6195 31.5684 16.6498 31.6921 16.7153 31.799C16.7808 31.906 16.8784 31.9912 16.9953 32.0433C17.1122 32.0955 17.2427 32.1122 17.3697 32.0912C17.4966 32.0702 17.6139 32.0124 17.706 31.9256L22.2883 27.5797L30.6661 33.695C31.5687 34.3547 32.8763 33.8897 33.1193 32.8234L38.9526 7.28061C39.2856 5.82368 37.8045 4.59366 36.3606 5.12684L3.75205 17.1691C2.72861 17.5473 2.7569 18.9522 3.79319 19.2919Z" fill="black"/>
</svg>
